<svg width="40" height="40" viewBox="0 0 40 40" fill="none" xmlns="http://www.w3.org/2000/svg">
<path d="M40 20C40 31.0457 31.0457 40 20 40C8.9543 40 0 31.0457 0 20C0 8.9543 8.9543 0 20 0C31.0457 0 40 8.9543 40 20Z" fill="#02A2AF"/>
<path d="M13.3346 15.025L19.5846 17.7083L13.3346 16.875V15.025ZM19.5846 22.2917L13.3346 24.975V23.125L19.5846 22.2917ZM11.668 12.5V18.3333L24.168 20L11.668 21.6667V27.5L29.168 20L11.668 12.5Z" fill="white"/>
</svg>
